Домашняя работа №1
…
library(readr)
read_csv("C:/R/insurance_cost.csv")

## Rows: 1338 Columns: 7
## ── Column specification ────────────────────────────────────────────────────────
## Delimiter: ","
## chr (3): sex, smoker, region
## dbl (4): age, bmi, children, charges
## 
## ℹ Use `spec()` to retrieve the full column specification for this data.
## ℹ Specify the column types or set `show_col_types = FALSE` to quiet this message.

## # A tibble: 1,338 × 7
##      age sex      bmi children smoker region    charges
##    <dbl> <chr>  <dbl>    <dbl> <chr>  <chr>       <dbl>
##  1    19 female  27.9        0 yes    southwest  16885.
##  2    18 male    33.8        1 no     southeast   1726.
##  3    28 male    33          3 no     southeast   4449.
##  4    33 male    22.7        0 no     northwest  21984.
##  5    32 male    28.9        0 no     northwest   3867.
##  6    31 female  25.7        0 no     southeast   3757.
##  7    46 female  33.4        1 no     southeast   8241.
##  8    37 female  27.7        3 no     northwest   7282.
##  9    37 male    29.8        2 no     northeast   6406.
## 10    60 female  25.8        0 no     northwest  28923.
## # … with 1,328 more rows
…
